LAB12series.csv

#Digilent WaveForms Oscilloscope Acquisition
#Device Name: Discovery2
#Serial Number: SN:210321AC1D55
#Date Time: 2021-04-08 16:05:42.835
#Sample rate: 4e+06Hz
#Samples: 8192
#Trigger: Source: Channel 1 Type: Edge Condition: Rising Level: 828.76 mV Hyst.: Auto HoldOff: 0 s
#Channel 1: Range: 2 V/div Offset: 4 V Attenuation: 1 X
#Channel 2: Range: 2 V/div Offset: -4 V Attenuation: 1 X
#Math 1: Function: C1/100
#Wavegen Channel 1: Running
#Mode: Simple
#Type: Sine
#Frequency: 1 kHz
#Period: 1 ms
#Amplitude: 4 V
#Offset: 0 V
#Symmetry: 50 %
#Phase: 0 °

Time (s),Channel 1 (V),Channel 2 (V),Math 1 (A)
-0.00102375,0.3451476338660022,0.6477945854294167,0.003451476338660022
-0.0010235,0.3488301124162561,0.6440408225396541,0.003488301124162561
-0.00102325,0.3561950695167495,0.6440408225396541,0.003561950695167495
-0.001023,0.3598775480670017,0.647794585429415,0.003598775480670017
-0.00102275,0.3598775480670033,0.6440408225396541,0.003598775480670034
-0.0010225,0.3672425051675035,0.6440408225396541,0.003672425051675034
-0.00102225,0.370924983717754,0.6440408225396541,0.003709249837177539
-0.001022,0.3782899408182557,0.647794585429415,0.003782899408182558
-0.00102175,0.3819724193685062,0.6440408225396576,0.003819724193685062
-0.0010215,0.3856548979187525,0.6515483483191763,0.003856548979187525
-0.00102125,0.3930198550192552,0.6553021112089423,0.003930198550192551
-0.001021,0.3967023335695048,0.6590558740987054,0.003967023335695048
-0.00102075,0.4040672906700049,0.6515483483191797,0.004040672906700049
-0.0010205,0.4114322477705059,0.6515483483191797,0.004114322477705059
-0.00102025,0.4151147263207572,0.6477945854294167,0.004151147263207572
-0.00102,0.4187972048710044,0.6477945854294167,0.004187972048710044
-0.00101975,0.4298446405217516,0.6440408225396558,0.004298446405217516
-0.0010195,0.4261621619715061,0.6477945854294167,0.004261621619715062
-0.00101925,0.4335271190720071,0.6477945854294167,0.004335271190720072
-0.001019,0.4372095976222568,0.6515483483191797,0.004372095976222568
-0.00101875,0.4408920761725106,0.6515483483191797,0.004408920761725106
-0.0010185,0.4482570332730107,0.6515483483191797,0.004482570332730107
-0.00101825,0.4556219903735041,0.6515483483191797,0.004556219903735041
-0.001018,0.4519395118232595,0.6553021112089407,0.004519395118232595
-0.00101775,0.4629869474740085,0.6515483483191797,0.004629869474740085
-0.0010175,0.4666694260242581,0.6553021112089423,0.004666694260242581
-0.00101725,0.4740343831247591,0.6590558740987054,0.004740343831247591
-0.001017,0.4777168616750087,0.6553021112089423,0.004777168616750087
-0.00101675,0.477716861675012,0.655302111208944,0.004777168616750121
-0.0010165,0.4850818187755055,0.6590558740987037,0.004850818187755054
-0.00101625,0.4924467758760098,0.6590558740987054,0.004924467758760098
-0.001016,0.4961292544262594,0.6553021112089423,0.004961292544262594
-0.00101575,0.4998117329765099,0.6553021112089423,0.0049981173297651
-0.0010155,0.499811732976515,0.6553021112089407,0.00499811732976515
-0.00101525,0.5108591686272622,0.6515483483191797,0.005108591686272622
-0.001015,0.5145416471775094,0.6515483483191797,0.005145416471775094
-0.00101475,0.5219066042780078,0.6553021112089407,0.005219066042780078
-0.0010145,0.5292715613785113,0.6590558740987054,0.005292715613785113
-0.00101425,0.5403189970292619,0.6590558740987054,0.005403189970292619
-0.001014,0.5440014755795124,0.6590558740987054,0.005440014755795124
-0.00101375,0.5476839541297653,0.6628096369884663,0.005476839541297654
-0.0010135,0.5550489112302663,0.659055874098707,0.005550489112302664
-0.00101325,0.5624138683307598,0.6628096369884663,0.005624138683307597
-0.001013,0.5660963468810136,0.662809636988468,0.005660963468810136
-0.00101275,0.5697788254312632,0.6590558740987054,0.005697788254312632
-0.0010125,0.5771437825317633,0.666563399878231,0.005771437825317634
-0.00101225,0.5808262610820139,0.6590558740987054,0.005808262610820138
-0.001012,0.5845087396322644,0.666563399878231,0.005845087396322644
-0.00101175,0.5845087396322644,0.666563399878231,0.005845087396322644
-0.0010115,0.5881912181825123,0.6628096369884696,0.005881912181825123
-0.00101125,0.5918736967327645,0.666563399878231,0.005918736967327645
-0.001011,0.5992386538332646,0.666563399878231,0.005992386538332646
-0.00101075,0.6066036109337656,0.666563399878231,0.006066036109337656
-0.0010105,0.6066036109337689,0.6665633998782344,0.006066036109337689
-0.00101025,0.6139685680342707,0.6740709256577527,0.006139685680342707
-0.00101,0.6250160036850113,0.6665633998782344,0.006250160036850113
-0.00100975,0.6250160036850163,0.666563399878231,0.006250160036850163
-0.0010095,0.6360634393357669,0.6703171627679936,0.006360634393357669
-0.00100925,0.6397459178860165,0.6740709256577562,0.006397459178860166
-0.001009,0.643428396436267,0.6703171627679936,0.00643428396436267
-0.00100875,0.6544758320870177,0.6703171627679936,0.006544758320870176
-0.0010085,0.6544758320870177,0.6703171627679936,0.006544758320870176
-0.00100825,0.6581583106372665,0.6703171627679936,0.006581583106372665
-0.001008,0.6618407891875178,0.666563399878231,0.006618407891875178
-0.00100775,0.6618407891875178,0.6703171627679936,0.006618407891875178
-0.0010075,0.6692057462880179,0.666563399878231,0.006692057462880179
-0.00100725,0.67288822483827,0.6665633998782344,0.0067288822483827
-0.001007,0.6765707033885222,0.6740709256577545,0.006765707033885223
-0.00100675,0.6839356604890157,0.6703171627679952,0.006839356604890156
-0.0010065,0.6913006175895191,0.6703171627679936,0.006913006175895191
-0.00100625,0.6949830961397696,0.6703171627679936,0.006949830961397696
-0.001006,0.6986655746900201,0.6703171627679936,0.006986655746900201
-0.00100575,0.7060305317905202,0.6740709256577562,0.007060305317905202
-0.0010055,0.7097130103407732,0.6778246885475192,0.007097130103407732
-0.00100525,0.7170779674412675,0.6778246885475192,0.007170779674412675
-0.001005,0.7207604459915188,0.6815784514372801,0.007207604459915188
-0.00100475,0.7281254030920215,0.6778246885475192,0.007281254030920214
-0.0010045,0.7318078816422711,0.6740709256577562,0.00731807881642271
-0.00100425,0.7318078816422711,0.6740709256577562,0.00731807881642271
-0.001004,0.7391728387427754,0.6740709256577578,0.007391728387427754
-0.00100375,0.7465377958432755,0.6778246885475175,0.007465377958432756
-0.0010035,0.753902752943769,0.6740709256577578,0.007539027529437689
-0.00100325,0.7539027529437723,0.6778246885475192,0.007539027529437723
-0.001003,0.7612677100442724,0.6815784514372818,0.007612677100442724
-0.00100275,0.7686326671447734,0.6815784514372818,0.007686326671447734
-0.0010025,0.772315145695023,0.6778246885475192,0.00772315145695023
-0.00100225,0.7759976242452752,0.6778246885475175,0.007759976242452751
-0.001002,0.7796801027955224,0.6740709256577578,0.007796801027955224
-0.00100175,0.783362581345772,0.6778246885475175,0.007833625813457718
-0.0010015,0.7907275384462746,0.6778246885475192,0.007907275384462746
-0.00100125,0.7907275384462746,0.6778246885475192,0.007907275384462746
-0.001001,0.8017749740970244,0.6815784514372818,0.008017749740970243
-0.00100075,0.8017749740970277,0.6778246885475192,0.008017749740970276
-0.0010005,0.8091399311975304,0.6778246885475175,0.008091399311975304
-0.00100025,0.820187366848271,0.6740709256577578,0.00820187366848271
-0.001,0.8238698453985256,0.6740709256577562,0.008238698453985257
-0.00099975,0.8275523239487761,0.6778246885475192,0.008275523239487761
-0.0009995,0.8349172810492762,0.6778246885475192,0.008349172810492762
-0.0009992499999999999,0.8385997595995267,0.6778246885475192,0.008385997595995266
-0.0009989999999999999,0.8459647167000285,0.6778246885475209,0.008459647167000286
-0.0009987500000000001,0.8496471952502757,0.6815784514372801,0.008496471952502756
-0.0009985,0.8570121523507741,0.6778246885475209,0.008570121523507741
-0.00099825,0.8606946309010279,0.6778246885475192,0.00860694630901028
-0.000998,0.8643771094512775,0.6740709256577562,0.008643771094512776
-0.0009977499999999999,0.8643771094512775,0.6740709256577562,0.008643771094512776
-0.0009974999999999999,0.8717420665517785,0.6778246885475192,0.008717420665517785
-0.0009972499999999999,0.8717420665517835,0.6778246885475192,0.008717420665517835
-0.0009970000000000001,0.8827895022025242,0.6778246885475192,0.008827895022025242
-0.00099675,0.8864719807527788,0.6853322143270448,0.008864719807527788
-0.0009965,0.8901544593030293,0.6853322143270448,0.008901544593030292
-0.00099625,0.8938369378532789,0.6853322143270448,0.008938369378532788
-0.0009959999999999999,0.9012018949537799,0.6853322143270448,0.009012018949537799
-0.0009957499999999999,0.9122493306045322,0.6890859772168058,0.009122493306045322
-0.0009955000000000001,0.9159318091547785,0.6853322143270465,0.009159318091547785
-0.00099525,0.919614287705029,0.6853322143270448,0.009196142877050289
-0.000995,0.9269792448055307,0.69283974010657,0.009269792448055307
-0.00099475,0.9232967662552811,0.6890859772168074,0.009232967662552811
-0.0009944999999999999,0.9306617233557812,0.6890859772168074,0.009306617233557812
-0.0009942499999999999,0.9343442019060342,0.6853322143270465,0.009343442019060342
-0.0009939999999999999,0.9417091590065335,0.6890859772168074,0.009417091590065336
-0.0009937500000000001,0.9453916375567798,0.6890859772168074,0.009453916375567797
-0.0009935,0.9490741161070303,0.6928397401065683,0.009490741161070302
-0.00099325,0.9564390732075321,0.6890859772168074,0.009564390732075321
-0.000993,0.9638040303080331,0.6890859772168074,0.00963804030308033
-0.0009927499999999999,0.9711689874085332,0.6890859772168074,0.009711689874085333
-0.0009924999999999999,0.9748514659587854,0.6928397401065683,0.009748514659587855
-0.0009922499999999999,0.9785339445090333,0.6890859772168074,0.009785339445090333
-0.000992,0.9785339445090333,0.6890859772168074,0.009785339445090333
-0.00099175,0.9822164230592838,0.6890859772168074,0.009822164230592838
-0.0009915,0.9858989016095334,0.6890859772168074,0.009858989016095334
-0.0009912499999999999,0.9822164230592838,0.6890859772168074,0.009822164230592838
-0.0009909999999999999,0.9895813801597839,0.69283974010657,0.00989581380159784
-0.0009907499999999999,1.000628815810535,0.69283974010657,0.01000628815810535
-0.0009905000000000001,1.000628815810535,0.69283974010657,0.01000628815810535
-0.00099025,1.007993772911031,0.6890859772168091,0.01007993772911031
-0.00099,1.019041208561785,0.7003472658860956,0.01019041208561785
-0.00098975,1.022723687112036,0.6853322143270448,0.01022723687112036
-0.0009894999999999999,1.026406165662285,0.6890859772168074,0.01026406165662285
-0.0009892499999999999,1.03377112276279,0.6853322143270448,0.0103377112276279
-0.0009889999999999999,1.04113607986329,0.6853322143270448,0.0104113607986329
-0.00098875,1.048501036963783,0.6853322143270448,0.01048501036963783
-0.0009885,1.048501036963787,0.6890859772168074,0.01048501036963787
-0.00098825,1.052183515514037,0.6890859772168074,0.01052183515514037
-0.0009879999999999999,1.055865994064288,0.6890859772168074,0.01055865994064288
-0.0009877499999999999,1.055865994064288,0.6890859772168074,0.01055865994064288
-0.0009874999999999999,1.063230951164789,0.6928397401065683,0.01063230951164789
-0.0009872500000000001,1.066913429715036,0.6890859772168091,0.01066913429715036
-0.000987,1.070595908265286,0.6890859772168074,0.01070595908265286
-0.00098675,1.077960865365788,0.69283974010657,0.01077960865365788
-0.0009865,1.085325822466289,0.6890859772168074,0.01085325822466289
-0.0009862499999999999,1.089008301016539,0.69283974010657,0.01089008301016539
-0.0009859999999999999,1.096373258117043,0.6890859772168091,0.01096373258117043
-0.0009857499999999999,1.103738215217541,0.6928397401065717,0.01103738215217541
-0.0009855,1.107420693767788,0.6965935029963314,0.01107420693767788
-0.00098525,1.11478565086829,0.7003472658860956,0.0111478565086829
-0.000985,1.12215060796879,0.696593502996333,0.0112215060796879
-0.0009847499999999999,1.12215060796879,0.696593502996333,0.0112215060796879
-0.0009844999999999999,1.129515565069291,0.696593502996333,0.01129515565069291
-0.0009842499999999999,1.133198043619543,0.6965935029963314,0.01133198043619543
-0.0009840000000000001,1.13688052216979,0.6928397401065717,0.0113688052216979
-0.00098375,1.136880522169792,0.69283974010657,0.01136880522169791
-0.0009835,1.140563000720041,0.69283974010657,0.01140563000720041
-0.00098325,1.144245479270292,0.69283974010657,0.01144245479270292
-0.0009829999999999999,1.144245479270292,0.6890859772168074,0.01144245479270292
-0.0009827499999999999,1.155292914921044,0.6965935029963314,0.01155292914921044
-0.0009824999999999999,1.158975393471294,0.69283974010657,0.01158975393471294
-0.0009822500000000001,1.162657872021541,0.69283974010657,0.01162657872021541
-0.000982,1.170022829122042,0.69283974010657,0.01170022829122042
-0.00098175,1.173705307672293,0.69283974010657,0.01173705307672293
-0.0009815,1.184752743323044,0.69283974010657,0.01184752743323044
-0.0009812499999999999,1.188435221873294,0.696593502996333,0.01188435221873294
-0.0009809999999999999,1.192117700423547,0.7003472658860956,0.01192117700423547
-0.0009807500000000001,1.19948265752404,0.7003472658860956,0.01199482657524041
-0.0009805,1.199482657524044,0.6965935029963347,0.01199482657524044
-0.00098025,1.210530093174794,0.696593502996333,0.01210530093174794
-0.00098,1.210530093174794,0.696593502996333,0.01210530093174794
-0.0009797499999999999,1.217895050275295,0.696593502996333,0.01217895050275295
-0.0009794999999999999,1.217895050275297,0.696593502996333,0.01217895050275297
-0.0009792499999999999,1.221577528825547,0.696593502996333,0.01221577528825547
-0.0009790000000000001,1.225260007375794,0.696593502996333,0.01225260007375794
-0.00097875,1.232624964476296,0.696593502996333,0.01232624964476296
-0.0009785,1.239989921576797,0.69283974010657,0.01239989921576797
-0.00097825,1.239989921576797,0.696593502996333,0.01239989921576797
-0.0009779999999999999,1.251037357227546,0.6890859772168074,0.01251037357227546
-0.0009777499999999999,1.251037357227546,0.696593502996333,0.01251037357227546
-0.0009775000000000001,1.251037357227546,0.696593502996333,0.01251037357227546
-0.00097725,1.258402314328044,0.700347265886094,0.01258402314328044
-0.000977,1.265767271428548,0.7003472658860956,0.01265767271428547
-0.00097675,1.273132228529048,0.7041010287758587,0.01273132228529048
-0.0009764999999999999,1.276814707079298,0.7003472658860956,0.01276814707079298
-0.00097625,1.284179664179798,0.7003472658860956,0.01284179664179798
-0.000976,1.284179664179798,0.696593502996333,0.01284179664179798
-0.0009757499999999999,1.291544621280298,0.7003472658860956,0.01291544621280298
-0.0009754999999999999,1.295227099830549,0.696593502996333,0.01295227099830549
-0.00097525,1.298909578380799,0.696593502996333,0.01298909578380799
-0.000975,1.302592056931049,0.696593502996333,0.01302592056931049
-0.0009747499999999999,1.306274535481299,0.69283974010657,0.01306274535481299
-0.0009745,1.30995701403155,0.7003472658860956,0.0130995701403155
-0.00097425,1.31732197113205,0.7003472658860956,0.0131732197113205
-0.0009739999999999999,1.328369406782801,0.7041010287758587,0.01328369406782801
-0.00097375,1.328369406782801,0.7041010287758587,0.01328369406782801
-0.0009735,1.332051885333051,0.7041010287758587,0.01332051885333051
-0.0009732499999999999,1.339416842433551,0.696593502996333,0.01339416842433551
-0.000973,1.343099320983801,0.696593502996333,0.01343099320983801
-0.00097275,1.339416842433551,0.7041010287758587,0.01339416842433551
-0.0009724999999999999,1.346781799534051,0.696593502996333,0.01346781799534051
-0.0009722499999999999,1.357829235184802,0.696593502996333,0.01357829235184802
-0.000972,1.361511713735053,0.7003472658860956,0.01361511713735052
-0.00097175,1.361511713735053,0.7003472658860956,0.01361511713735052
-0.0009714999999999999,1.372559149385803,0.7041010287758587,0.01372559149385803
-0.00097125,1.372559149385803,0.7041010287758587,0.01372559149385803
-0.000971,1.379924106486303,0.7041010287758587,0.01379924106486303
-0.0009707499999999999,1.383606585036553,0.7003472658860956,0.01383606585036553
-0.0009705,1.387289063586803,0.7078547916656213,0.01387289063586803
-0.00097025,1.390971542137054,0.7003472658860956,0.01390971542137054
-0.0009699999999999999,1.394654020687303,0.7041010287758587,0.01394654020687303
-0.00096975,1.394654020687303,0.7003472658860956,0.01394654020687303
-0.0009695,1.402018977787804,0.7003472658860956,0.01402018977787805
-0.00096925,1.405701456338054,0.696593502996333,0.01405701456338054
-0.0009689999999999999,1.416748891988805,0.696593502996333,0.01416748891988805
-0.00096875,1.420431370539055,0.7041010287758587,0.01420431370539055
-0.0009685,1.424113849089305,0.7003472658860956,0.01424113849089305
-0.0009682499999999999,1.427796327639555,0.7041010287758587,0.01427796327639555
-0.000968,1.427796327639555,0.7003472658860956,0.01427796327639555
-0.00096775,1.431478806189806,0.7041010287758587,0.01431478806189806
-0.0009674999999999999,1.442526241840556,0.7041010287758587,0.01442526241840556
-0.00096725,1.442526241840556,0.7003472658860956,0.01442526241840556
-0.000967,1.449891198941057,0.7041010287758587,0.01449891198941057
-0.0009667499999999999,1.457256156041557,0.7078547916656213,0.01457256156041557
-0.0009665,1.457256156041557,0.7041010287758587,0.01457256156041557
-0.00096625,1.464621113142058,0.7078547916656213,0.01464621113142058
-0.000966,1.464621113142058,0.7078547916656213,0.01464621113142058
-0.0009657499999999999,1.471986070242558,0.7116085545553839,0.01471986070242558
-0.0009655,1.475668548792807,0.7078547916656213,0.01475668548792807
-0.00096525,1.483033505893308,0.7078547916656213,0.01483033505893308
-0.0009649999999999999,1.490398462993809,0.7078547916656213,0.01490398462993808
-0.00096475,1.490398462993809,0.7041010287758587,0.01490398462993808
-0.0009645,1.497763420094309,0.7078547916656213,0.01497763420094309
-0.0009642499999999999,1.501445898644559,0.7003472658860956,0.01501445898644559
-0.000964,1.50512837719481,0.7003472658860956,0.0150512837719481
-0.00096375,1.508810855745059,0.7041010287758587,0.01508810855745059
-0.0009634999999999999,1.51249333429531,0.7003472658860956,0.0151249333429531
-0.0009632499999999999,1.51985829139581,0.696593502996333,0.0151985829139581
-0.000963,1.52722324849631,0.7003472658860956,0.0152722324849631
-0.00096275,1.53090572704656,0.7003472658860956,0.0153090572704656
-0.0009624999999999999,1.534588205596811,0.7003472658860956,0.01534588205596811
-0.00096225,1.545635641247562,0.7003472658860956,0.01545635641247562
-0.000962,1.545635641247562,0.7003472658860956,0.01545635641247562
-0.0009617499999999999,1.556683076898311,0.7003472658860956,0.01556683076898311
-0.0009615,1.556683076898311,0.7078547916656213,0.01556683076898311
-0.00096125,1.556683076898311,0.7116085545553839,0.01556683076898311
-0.0009609999999999999,1.560365555448562,0.7003472658860956,0.01560365555448562
-0.00096075,1.564048033998812,0.7041010287758587,0.01564048033998812
-0.0009605,1.571412991099312,0.7041010287758587,0.01571412991099312
-0.0009602499999999999,1.571412991099312,0.7078547916656213,0.01571412991099312
-0.0009599999999999999,1.575095469649563,0.7078547916656213,0.01575095469649563
-0.00095975,1.575095469649563,0.7078547916656213,0.01575095469649563
-0.0009595,1.586142905300314,0.7116085545553839,0.01586142905300314
-0.0009592499999999999,1.586142905300314,0.7153623174451469,0.01586142905300314
-0.000959,1.589825383850563,0.7116085545553839,0.01589825383850563
-0.00095875,1.597190340951064,0.7078547916656213,0.01597190340951064
-0.0009584999999999999,1.604555298051564,0.7078547916656213,0.01604555298051564
-0.00095825,1.608237776601814,0.7116085545553839,0.01608237776601814
-0.000958,1.611920255152064,0.7078547916656213,0.01611920255152064
-0.0009577499999999999,1.619285212252564,0.7078547916656213,0.01619285212252565
-0.0009575,1.622967690802815,0.7078547916656213,0.01622967690802815
-0.00095725,1.619285212252564,0.7116085545553839,0.01619285212252565
-0.000957,1.626650169353066,0.7153623174451469,0.01626650169353066
