LAB12number2.csv

#Digilent WaveForms Oscilloscope Acquisition
#Device Name: Discovery2
#Serial Number: SN:210321AC1D55
#Date Time: 2021-04-08 16:45:49.499
#Sample rate: 4e+06Hz
#Samples: 8192
#Trigger: Source: Channel 1 Type: Edge Condition: Rising Level: 633.14 mV Hyst.: Auto HoldOff: 0 s
#Channel 1: Range: 2 V/div Offset: 4 V Attenuation: 1 X
#Channel 2: Range: 2 V/div Offset: -4 V Attenuation: 1 X
#Math 1: Function: C1/100
#Wavegen Channel 1: Running
#Mode: Simple
#Type: Sine
#Frequency: 1 kHz
#Period: 1 ms
#Amplitude: 4 V
#Offset: 0 V
#Symmetry: 50 %
#Phase: 0 °

Time (s),Channel 1 (V),Channel 2 (V),Math 1 (A)
-0.00102375,0.1573412278032436,0.7228698432246725,0.001573412278032436
-0.0010235,0.164706184903747,0.7266236061144368,0.00164706184903747
-0.00102325,0.1720711420042404,0.730377369004196,0.001720711420042404
-0.001023,0.1720711420042438,0.7303773690041977,0.001720711420042438
-0.00102275,0.1794360991047439,0.7341311318939607,0.001794360991047439
-0.0010225,0.1831185776549944,0.7341311318939607,0.001831185776549944
-0.00102225,0.1831185776549944,0.7378848947837233,0.001831185776549944
-0.001022,0.1941660133057484,0.7378848947837268,0.001941660133057483
-0.00102175,0.2015309704062501,0.7453924205632489,0.002015309704062502
-0.0010215,0.2125784060569907,0.7453924205632489,0.002125784060569907
-0.00102125,0.2088959275067461,0.7416386576734864,0.002088959275067461
-0.001021,0.2162608846072462,0.7416386576734864,0.002162608846072462
-0.00102075,0.2088959275067461,0.7341311318939607,0.002088959275067461
-0.0010205,0.2236258417077464,0.7378848947837233,0.002236258417077463
-0.00102025,0.2309907988082481,0.741638657673488,0.002309907988082482
-0.00102,0.2346732773584953,0.7453924205632473,0.002346732773584953
-0.00101975,0.234673277358497,0.741638657673488,0.00234673277358497
-0.0010195,0.2457207130092476,0.7453924205632489,0.002457207130092476
-0.00101925,0.2494031915594981,0.7416386576734864,0.002494031915594981
-0.001019,0.2530856701097477,0.7416386576734864,0.002530856701097477
-0.00101875,0.2567681486599999,0.7416386576734864,0.002567681486599999
-0.0010185,0.260450627210252,0.741638657673488,0.002604506272102521
-0.00101825,0.2678155843107455,0.7453924205632473,0.002678155843107455
-0.001018,0.2788630199614944,0.7528999463427711,0.002788630199614944
-0.00101775,0.2788630199614994,0.7491461834530115,0.002788630199614994
-0.0010175,0.2788630199614994,0.7491461834530115,0.002788630199614994
-0.00101725,0.2862279770619995,0.7491461834530115,0.002862279770619995
-0.001017,0.2972754127127485,0.7453924205632473,0.002972754127127485
-0.00101675,0.2935929341625047,0.741638657673488,0.002935929341625047
-0.0010165,0.3046403698132453,0.7453924205632473,0.003046403698132453
-0.00101625,0.3046403698132503,0.7453924205632489,0.003046403698132503
-0.001016,0.3120053269137504,0.7491461834530115,0.003120053269137504
-0.00101575,0.3193702840142514,0.7491461834530115,0.003193702840142514
-0.0010155,0.319370284014253,0.7453924205632506,0.003193702840142531
-0.00101525,0.3230527625645043,0.7491461834530132,0.003230527625645044
-0.001015,0.3304177196649987,0.7528999463427729,0.003304177196649986
-0.00101475,0.3341001982152499,0.7491461834530132,0.003341001982152499
-0.0010145,0.3414651553157526,0.7453924205632489,0.003414651553157526
-0.00101425,0.3488301124162527,0.7453924205632489,0.003488301124162527
-0.001014,0.3525125909665023,0.7491461834530115,0.003525125909665023
-0.00101375,0.3598775480670033,0.7528999463427746,0.003598775480670034
-0.0010135,0.359877548067005,0.7528999463427746,0.00359877548067005
-0.00101325,0.3635600266172513,0.7528999463427746,0.003635600266172513
-0.001013,0.363560026617253,0.7528999463427746,0.003635600266172529
-0.00101275,0.370924983717754,0.7491461834530115,0.003709249837177539
-0.0010125,0.3819724193685046,0.7491461834530115,0.003819724193685045
-0.00101225,0.3856548979187542,0.7491461834530115,0.003856548979187542
-0.001012,0.3967023335695081,0.7528999463427729,0.003967023335695082
-0.00101175,0.4040672906700016,0.7491461834530132,0.004040672906700015
-0.0010115,0.4077497692202537,0.7528999463427729,0.004077497692202538
-0.00101125,0.4077497692202554,0.7491461834530115,0.004077497692202554
-0.001011,0.418797204871006,0.7528999463427746,0.00418797204871006
-0.00101075,0.4224796834212565,0.7528999463427746,0.004224796834212566
-0.0010105,0.4261621619715095,0.7491461834530115,0.004261621619715095
-0.00101025,0.4335271190720122,0.7491461834530132,0.004335271190720122
-0.00101,0.4445745547227519,0.7528999463427729,0.004445745547227519
-0.00100975,0.4408920761725073,0.7528999463427746,0.004408920761725072
-0.0010095,0.4482570332730074,0.7566537092325372,0.004482570332730073
-0.00100925,0.4445745547227569,0.7566537092325372,0.004445745547227569
-0.001009,0.4482570332730074,0.7566537092325372,0.004482570332730073
-0.00100875,0.4519395118232629,0.7566537092325355,0.004519395118232629
-0.0010085,0.4629869474740035,0.7528999463427762,0.004629869474740035
-0.00100825,0.4703519045745053,0.7566537092325355,0.004703519045745052
-0.001008,0.4703519045745086,0.7641612350120628,0.004703519045745086
-0.00100775,0.4777168616750087,0.7641612350120628,0.004777168616750087
-0.0010075,0.4850818187755088,0.7604074721223002,0.004850818187755088
-0.00100725,0.4887642973257644,0.7641612350120611,0.004887642973257644
-0.001007,0.4998117329765099,0.7604074721223019,0.0049981173297651
-0.00100675,0.4998117329765099,0.7641612350120611,0.0049981173297651
-0.0010065,0.5034942115267604,0.7604074721223002,0.005034942115267604
-0.00100625,0.5108591686272606,0.7604074721223002,0.005108591686272606
-0.001006,0.5145416471775111,0.7566537092325372,0.00514541647177511
-0.00100575,0.5219066042780112,0.7604074721223002,0.005219066042780112
-0.0010055,0.5292715613785129,0.7566537092325388,0.005292715613785129
-0.00100525,0.5329540399287601,0.7604074721222985,0.005329540399287601
-0.001005,0.5366365184790097,0.7566537092325388,0.005366365184790098
-0.00100475,0.547683954129762,0.7604074721223002,0.00547683954129762
-0.0010045,0.5513664326800125,0.7604074721223002,0.005513664326800125
-0.00100425,0.555048911230263,0.7604074721223002,0.00555048911230263
-0.001004,0.566096346881012,0.7604074721223002,0.00566096346881012
-0.00100375,0.5624138683307631,0.7604074721222985,0.005624138683307631
-0.0010035,0.5624138683307631,0.7566537092325388,0.005624138683307631
-0.00100325,0.5697788254312632,0.7604074721223002,0.005697788254312632
-0.001003,0.5771437825317633,0.7604074721223002,0.005771437825317634
-0.00100275,0.5845087396322644,0.7604074721223002,0.005845087396322644
-0.0010025,0.588191218182514,0.7604074721223002,0.00588191218182514
-0.00100225,0.5955561752830166,0.7641612350120628,0.005955561752830166
-0.001002,0.5992386538332629,0.7641612350120628,0.005992386538332629
-0.00100175,0.6066036109337622,0.7641612350120628,0.006066036109337622
-0.0010015,0.6066036109337656,0.7604074721223002,0.006066036109337656
-0.00100125,0.6102860894840152,0.7641612350120628,0.006102860894840152
-0.001001,0.6139685680342657,0.7679149979018258,0.006139685680342657
-0.00100075,0.6139685680342707,0.7679149979018258,0.006139685680342707
-0.0010005,0.6250160036850196,0.7679149979018258,0.006250160036850197
-0.00100025,0.6323809607855131,0.7679149979018258,0.00632380960785513
-0.001,0.6360634393357669,0.7679149979018258,0.006360634393357669
-0.00099975,0.6397459178860165,0.7604074721223002,0.006397459178860166
-0.0009995,0.6471108749865175,0.7604074721223002,0.006471108749865176
-0.0009992499999999999,0.6544758320870177,0.7604074721223002,0.006544758320870176
-0.0009989999999999999,0.6581583106372715,0.7566537092325406,0.006581583106372716
-0.0009987500000000001,0.6655232677377649,0.7641612350120593,0.006655232677377648
-0.0009985,0.6692057462880162,0.7679149979018242,0.006692057462880163
-0.00099825,0.6765707033885189,0.7679149979018258,0.006765707033885189
-0.000998,0.6802531819387685,0.7641612350120628,0.006802531819387685
-0.0009977499999999999,0.6876181390392695,0.7641612350120628,0.006876181390392695
-0.0009974999999999999,0.6839356604890223,0.7641612350120628,0.006839356604890223
-0.0009972499999999999,0.6913006175895224,0.7641612350120628,0.006913006175895225
-0.0009970000000000001,0.6986655746900168,0.7641612350120628,0.006986655746900167
-0.00099675,0.7097130103407698,0.7641612350120628,0.007097130103407698
-0.0009965,0.7097130103407698,0.7641612350120628,0.007097130103407698
-0.00099625,0.7170779674412708,0.7641612350120628,0.007170779674412708
-0.0009959999999999999,0.7244429245417709,0.7679149979018258,0.00724442924541771
-0.0009957499999999999,0.7318078816422711,0.7641612350120628,0.00731807881642271
-0.0009955000000000001,0.7318078816422711,0.7641612350120628,0.00731807881642271
-0.00099525,0.7354903601925199,0.7641612350120628,0.007354903601925199
-0.000995,0.7465377958432722,0.7641612350120628,0.007465377958432722
-0.00099475,0.7465377958432722,0.7679149979018258,0.007465377958432722
-0.0009944999999999999,0.7502202743935227,0.775422523681351,0.007502202743935227
-0.0009942499999999999,0.7575852314940245,0.7716687607915884,0.007575852314940244
-0.0009939999999999999,0.7612677100442757,0.7716687607915884,0.007612677100442758
-0.0009937500000000001,0.7686326671447701,0.7716687607915884,0.007686326671447701
-0.0009935,0.7723151456950214,0.7716687607915884,0.007723151456950214
-0.00099325,0.772315145695023,0.7679149979018258,0.00772315145695023
-0.000993,0.7759976242452735,0.7679149979018258,0.007759976242452735
-0.0009927499999999999,0.7833625813457736,0.7716687607915884,0.007833625813457736
-0.0009924999999999999,0.7907275384462796,0.7716687607915884,0.007907275384462797
-0.0009922499999999999,0.801774974097026,0.7716687607915884,0.00801774974097026
-0.000992,0.8054574526472732,0.7716687607915884,0.008054574526472732
-0.00099175,0.8091399311975254,0.7679149979018258,0.008091399311975254
-0.0009915,0.812822409747775,0.7679149979018258,0.00812822409747775
-0.0009912499999999999,0.820187366848276,0.7679149979018258,0.008201873668482761
-0.0009909999999999999,0.8275523239487761,0.7679149979018258,0.008275523239487761
-0.0009907499999999999,0.8275523239487794,0.7679149979018275,0.008275523239487794
-0.0009905000000000001,0.8349172810492729,0.7716687607915867,0.008349172810492729
-0.00099025,0.842282238149773,0.7716687607915884,0.008422822381497731
-0.00099,0.8496471952502773,0.7716687607915884,0.008496471952502773
-0.00098975,0.8570121523507774,0.775422523681351,0.008570121523507774
-0.0009894999999999999,0.8570121523507774,0.775422523681351,0.008570121523507774
-0.0009892499999999999,0.8570121523507808,0.7716687607915884,0.008570121523507807
-0.0009889999999999999,0.8643771094512809,0.7716687607915867,0.008643771094512809
-0.00098875,0.8717420665517752,0.7679149979018275,0.008717420665517752
-0.0009885,0.8791070236522787,0.7716687607915884,0.008791070236522787
-0.00098825,0.8791070236522787,0.7716687607915884,0.008791070236522787
-0.0009879999999999999,0.8827895022025292,0.7716687607915884,0.008827895022025292
-0.0009877499999999999,0.8864719807527788,0.7716687607915884,0.008864719807527788
-0.0009874999999999999,0.8901544593030343,0.7716687607915884,0.008901544593030343
-0.0009872500000000001,0.9012018949537749,0.7716687607915884,0.009012018949537749
-0.000987,0.9012018949537799,0.7716687607915884,0.009012018949537799
-0.00098675,0.90856685205428,0.7679149979018258,0.0090856685205428
-0.0009865,0.9122493306045305,0.7679149979018258,0.009122493306045304
-0.0009862499999999999,0.9269792448055307,0.7641612350120628,0.009269792448055307
-0.0009859999999999999,0.9306617233557796,0.7679149979018275,0.009306617233557794
-0.0009857499999999999,0.9269792448055307,0.7716687607915867,0.009269792448055307
-0.0009855,0.9269792448055307,0.7679149979018275,0.009269792448055307
-0.00098525,0.9380266804562813,0.7716687607915884,0.009380266804562814
-0.000985,0.9453916375567815,0.7716687607915884,0.009453916375567814
-0.0009847499999999999,0.949074116107032,0.7716687607915884,0.009490741161070319
-0.0009844999999999999,0.9564390732075321,0.7679149979018258,0.009564390732075321
-0.0009842499999999999,0.9601215517577842,0.7679149979018242,0.009601215517577843
-0.0009840000000000001,0.9638040303080314,0.7641612350120645,0.009638040303080313
-0.00098375,0.9711689874085299,0.7641612350120628,0.0097116898740853
-0.0009835,0.9748514659587837,0.7679149979018258,0.009748514659587837
-0.00098325,0.9748514659587837,0.7716687607915884,0.009748514659587837
-0.0009829999999999999,0.9895813801597839,0.7716687607915884,0.00989581380159784
-0.0009827499999999999,0.9932638587100361,0.7791762865711124,0.009932638587100362
-0.0009824999999999999,0.996946337260284,0.7754225236813493,0.009969463372602841
-0.0009822500000000001,0.996946337260284,0.7716687607915901,0.009969463372602841
-0.000982,1.011676251461285,0.775422523681351,0.01011676251461285
-0.00098175,1.015358730011536,0.775422523681351,0.01015358730011536
-0.0009815,1.011676251461285,0.7716687607915884,0.01011676251461285
-0.0009812499999999999,1.015358730011536,0.7716687607915884,0.01015358730011536
-0.0009809999999999999,1.022723687112038,0.7679149979018258,0.01022723687112037
-0.0009807500000000001,1.026406165662284,0.7679149979018258,0.01026406165662284
-0.0009805,1.033771122762783,0.7641612350120645,0.01033771122762783
-0.00098025,1.037453601313036,0.7716687607915884,0.01037453601313036
-0.00098,1.044818558413537,0.7679149979018258,0.01044818558413537
-0.0009797499999999999,1.048501036963787,0.7716687607915884,0.01048501036963787
-0.0009794999999999999,1.04850103696379,0.7716687607915901,0.0104850103696379
-0.0009792499999999999,1.055865994064289,0.775422523681351,0.01055865994064289
-0.0009790000000000001,1.059548472614535,0.775422523681351,0.01059548472614535
-0.00097875,1.063230951164788,0.779176286571114,0.01063230951164788
-0.0009785,1.070595908265288,0.779176286571114,0.01070595908265288
-0.00097825,1.074278386815538,0.779176286571114,0.01074278386815538
-0.0009779999999999999,1.081643343916038,0.779176286571114,0.01081643343916038
-0.0009777499999999999,1.089008301016539,0.7754225236813544,0.01089008301016539
-0.0009775000000000001,1.089008301016539,0.7829300494608732,0.01089008301016539
-0.00097725,1.092690779566787,0.7829300494608766,0.01092690779566787
-0.000977,1.10373821521754,0.779176286571114,0.0110373821521754
-0.00097675,1.10373821521754,0.7716687607915884,0.0110373821521754
-0.0009764999999999999,1.10742069376779,0.775422523681351,0.0110742069376779
-0.00097625,1.12215060796879,0.775422523681351,0.0112215060796879
-0.000976,1.125833086519041,0.779176286571114,0.01125833086519041
-0.0009757499999999999,1.129515565069291,0.775422523681351,0.01129515565069291
-0.0009754999999999999,1.133198043619541,0.775422523681351,0.01133198043619541
-0.00097525,1.133198043619541,0.775422523681351,0.01133198043619541
-0.000975,1.144245479270292,0.775422523681351,0.01144245479270292
-0.0009747499999999999,1.147927957820542,0.779176286571114,0.01147927957820542
-0.0009745,1.147927957820542,0.775422523681351,0.01147927957820542
-0.00097425,1.155292914921042,0.775422523681351,0.01155292914921042
-0.0009739999999999999,1.158975393471292,0.775422523681351,0.01158975393471292
-0.00097375,1.166340350571793,0.779176286571114,0.01166340350571793
-0.0009735,1.162657872021542,0.779176286571114,0.01162657872021542
-0.0009732499999999999,1.173705307672293,0.7829300494608766,0.01173705307672293
-0.000973,1.177387786222543,0.775422523681351,0.01177387786222544
-0.00097275,1.181070264772793,0.775422523681351,0.01181070264772793
-0.0009724999999999999,1.192117700423544,0.775422523681351,0.01192117700423544
-0.0009722499999999999,1.195800178973794,0.775422523681351,0.01195800178973794
-0.000972,1.203165136074294,0.779176286571114,0.01203165136074294
-0.00097175,1.203165136074294,0.775422523681351,0.01203165136074294
-0.0009714999999999999,1.214212571725045,0.779176286571114,0.01214212571725045
-0.00097125,1.217895050275295,0.779176286571114,0.01217895050275295
-0.000971,1.217895050275295,0.779176286571114,0.01217895050275295
-0.0009707499999999999,1.221577528825545,0.779176286571114,0.01221577528825545
-0.0009705,1.225260007375796,0.775422523681351,0.01225260007375796
-0.00097025,1.225260007375796,0.779176286571114,0.01225260007375796
-0.0009699999999999999,1.239989921576797,0.775422523681351,0.01239989921576797
-0.00096975,1.239989921576797,0.779176286571114,0.01239989921576797
-0.0009695,1.247354878677297,0.775422523681351,0.01247354878677297
-0.00096925,1.254719835777797,0.779176286571114,0.01254719835777797
-0.0009689999999999999,1.258402314328047,0.779176286571114,0.01258402314328047
-0.00096875,1.258402314328047,0.779176286571114,0.01258402314328047
-0.0009685,1.254719835777797,0.779176286571114,0.01254719835777797
-0.0009682499999999999,1.265767271428548,0.779176286571114,0.01265767271428547
-0.000968,1.273132228529048,0.775422523681351,0.01273132228529048
-0.00096775,1.276814707079298,0.775422523681351,0.01276814707079298
-0.0009674999999999999,1.280497185629549,0.775422523681351,0.01280497185629549
-0.00096725,1.291544621280298,0.775422523681351,0.01291544621280298
-0.000967,1.291544621280298,0.779176286571114,0.01291544621280298
-0.0009667499999999999,1.298909578380799,0.775422523681351,0.01298909578380799
-0.0009665,1.302592056931049,0.775422523681351,0.01302592056931049
-0.00096625,1.306274535481299,0.779176286571114,0.01306274535481299
-0.000966,1.3136394925818,0.779176286571114,0.013136394925818
-0.0009657499999999999,1.31732197113205,0.779176286571114,0.0131732197113205
-0.0009655,1.321004449682301,0.779176286571114,0.01321004449682301
-0.00096525,1.328369406782801,0.779176286571114,0.01328369406782801
-0.0009649999999999999,1.332051885333051,0.779176286571114,0.01332051885333051
-0.00096475,1.335734363883301,0.775422523681351,0.01335734363883301
-0.0009645,1.335734363883301,0.775422523681351,0.01335734363883301
-0.0009642499999999999,1.343099320983801,0.775422523681351,0.01343099320983801
-0.000964,1.339416842433551,0.779176286571114,0.01339416842433551
-0.00096375,1.354146756634552,0.775422523681351,0.01354146756634552
-0.0009634999999999999,1.357829235184802,0.779176286571114,0.01357829235184802
-0.0009632499999999999,1.365194192285302,0.779176286571114,0.01365194192285302
-0.000963,1.368876670835553,0.779176286571114,0.01368876670835553
-0.00096275,1.376241627936053,0.779176286571114,0.01376241627936053
-0.0009624999999999999,1.379924106486303,0.779176286571114,0.01379924106486303
-0.00096225,1.379924106486303,0.779176286571114,0.01379924106486303
-0.000962,1.387289063586803,0.779176286571114,0.01387289063586803
-0.0009617499999999999,1.383606585036553,0.779176286571114,0.01383606585036553
-0.0009615,1.394654020687303,0.779176286571114,0.01394654020687303
-0.00096125,1.398336499237554,0.779176286571114,0.01398336499237554
-0.0009609999999999999,1.402018977787804,0.7829300494608766,0.01402018977787805
-0.00096075,1.409383934888305,0.779176286571114,0.01409383934888305
-0.0009605,1.413066413438555,0.779176286571114,0.01413066413438555
-0.0009602499999999999,1.413066413438555,0.775422523681351,0.01413066413438555
-0.0009599999999999999,1.420431370539055,0.7716687607915884,0.01420431370539055
-0.00095975,1.431478806189806,0.775422523681351,0.01431478806189806
-0.0009595,1.435161284740055,0.775422523681351,0.01435161284740055
-0.0009592499999999999,1.438843763290306,0.775422523681351,0.01438843763290306
-0.000959,1.442526241840556,0.779176286571114,0.01442526241840556
-0.00095875,1.449891198941057,0.7716687607915884,0.01449891198941057
-0.0009584999999999999,1.453573677491307,0.779176286571114,0.01453573677491307
-0.00095825,1.457256156041557,0.7829300494608766,0.01457256156041557
-0.000958,1.460938634591807,0.7829300494608766,0.01460938634591807
-0.0009577499999999999,1.460938634591807,0.779176286571114,0.01460938634591807
-0.0009575,1.468303591692307,0.779176286571114,0.01468303591692307
-0.00095725,1.471986070242558,0.779176286571114,0.01471986070242558
-0.000957,1.471986070242558,0.7829300494608766,0.01471986070242558
