LAB12OKAY.csv

#Digilent WaveForms Oscilloscope Acquisition
#Device Name: Discovery2
#Serial Number: SN:210321AC1D55
#Date Time: 2021-04-08 16:51:54.865
#Sample rate: 4e+06Hz
#Samples: 8192
#Trigger: Source: Channel 1 Type: Edge Condition: Rising Level: 994.39 mV Hyst.: Auto HoldOff: 0 s
#Channel 1: Range: 2 V/div Offset: 4 V Attenuation: 1 X
#Channel 2: Range: 2 V/div Offset: -4 V Attenuation: 1 X
#Math 1: Function: C1/100
#Wavegen Channel 1: Running
#Mode: Simple
#Type: Sine
#Frequency: 1 kHz
#Period: 1 ms
#Amplitude: 4 V
#Offset: 0 V
#Symmetry: 50 %
#Phase: 0 °

Time (s),Channel 1 (V),Channel 2 (V),Math 1 (A)
-0.00102375,0.4850818187755088,0.2423881933350374,0.004850818187755088
-0.0010235,0.4924467758760132,0.238634430445273,0.004924467758760132
-0.00102325,0.4998117329765066,0.2348806675555139,0.004998117329765066
-0.001023,0.5034942115267588,0.2311269046657509,0.005034942115267588
-0.00102275,0.5071766900770101,0.2386344304452748,0.0050717669007701
-0.0010225,0.5108591686272606,0.2311269046657491,0.005108591686272606
-0.00102225,0.5108591686272606,0.2348806675555122,0.005108591686272606
-0.001022,0.5182241257277623,0.2311269046657509,0.005182241257277623
-0.00102175,0.5219066042780145,0.2348806675555122,0.005219066042780145
-0.0010215,0.5292715613785079,0.2348806675555122,0.005292715613785079
-0.00102125,0.5403189970292619,0.2348806675555122,0.005403189970292619
-0.001021,0.5403189970292619,0.2386344304452748,0.005403189970292619
-0.00102075,0.5440014755795124,0.2348806675555122,0.005440014755795124
-0.0010205,0.555048911230263,0.2386344304452748,0.00555048911230263
-0.00102025,0.5587313897805176,0.2423881933350356,0.005587313897805177
-0.00102,0.5697788254312582,0.2386344304452765,0.005697788254312582
-0.00101975,0.5734613039815121,0.246141956224797,0.005734613039815121
-0.0010195,0.5734613039815137,0.2461419562248004,0.005734613039815138
-0.00101925,0.5808262610820139,0.2423881933350374,0.005808262610820138
-0.001019,0.5845087396322644,0.2386344304452748,0.005845087396322644
-0.00101875,0.5881912181825156,0.2386344304452748,0.005881912181825156
-0.0010185,0.5918736967327661,0.2386344304452748,0.005918736967327662
-0.00101825,0.5955561752830133,0.2386344304452748,0.005955561752830133
-0.001018,0.5992386538332629,0.2348806675555139,0.005992386538332629
-0.00101775,0.6102860894840152,0.2386344304452748,0.006102860894840152
-0.0010175,0.6176510465845162,0.2423881933350374,0.006176510465845162
-0.00101725,0.6213335251347658,0.2461419562248004,0.006213335251347658
-0.001017,0.6323809607855181,0.2423881933350374,0.006323809607855181
-0.00101675,0.6360634393357669,0.2423881933350374,0.006360634393357669
-0.0010165,0.6360634393357669,0.2423881933350374,0.006360634393357669
-0.00101625,0.6507933535367671,0.2461419562248004,0.006507933535367672
-0.001016,0.6544758320870177,0.2461419562248004,0.006544758320870176
-0.00101575,0.6581583106372682,0.2423881933350374,0.006581583106372682
-0.0010155,0.6581583106372715,0.2461419562248004,0.006581583106372716
-0.00101525,0.6655232677377749,0.2461419562247987,0.006655232677377749
-0.001015,0.6802531819387618,0.2423881933350391,0.006802531819387618
-0.00101475,0.6728882248382717,0.2423881933350374,0.006728882248382717
-0.0010145,0.6765707033885189,0.2423881933350374,0.006765707033885189
-0.00101425,0.683935660489019,0.249895719114563,0.00683935660489019
-0.001014,0.6913006175895191,0.2423881933350374,0.006913006175895191
-0.00101375,0.6913006175895224,0.2461419562248004,0.006913006175895225
-0.0010135,0.6986655746900251,0.2461419562247987,0.006986655746900251
-0.00101325,0.7097130103407648,0.2423881933350391,0.007097130103407648
-0.001013,0.7170779674412708,0.2461419562248004,0.007170779674412708
-0.00101275,0.7281254030920215,0.2423881933350374,0.007281254030920214
-0.0010125,0.7281254030920215,0.2423881933350374,0.007281254030920214
-0.00101225,0.7354903601925216,0.2423881933350374,0.007354903601925216
-0.001012,0.7391728387427737,0.2423881933350374,0.007391728387427737
-0.00101175,0.74285531729302,0.2423881933350374,0.007428553172930201
-0.0010115,0.7465377958432705,0.2423881933350374,0.007465377958432705
-0.00101125,0.7539027529437723,0.2461419562248004,0.007539027529437723
-0.001011,0.7575852314940228,0.2461419562248004,0.007575852314940228
-0.00101075,0.7575852314940228,0.249895719114563,0.007575852314940228
-0.0010105,0.7686326671447734,0.249895719114563,0.007686326671447734
-0.00101025,0.7686326671447767,0.2498957191145613,0.007686326671447768
-0.00101,0.7759976242452702,0.2461419562248021,0.007759976242452701
-0.00100975,0.7833625813457736,0.2461419562248004,0.007833625813457736
-0.0010095,0.7907275384462746,0.2461419562248004,0.007907275384462746
-0.00100925,0.7980924955467747,0.2461419562248004,0.007980924955467747
-0.001009,0.8017749740970244,0.2461419562248004,0.008017749740970243
-0.00100875,0.8091399311975254,0.2461419562248004,0.008091399311975254
-0.0010085,0.8091399311975254,0.2461419562248004,0.008091399311975254
-0.00100825,0.8165048882980221,0.2461419562248004,0.008165048882980221
-0.001008,0.8238698453985256,0.2386344304452748,0.008238698453985257
-0.00100775,0.8275523239487761,0.2386344304452748,0.008275523239487761
-0.0010075,0.8312348024990266,0.2386344304452748,0.008312348024990266
-0.00100725,0.8385997595995267,0.2498957191145647,0.008385997595995266
-0.001007,0.8385997595995284,0.253649482004326,0.008385997595995284
-0.00100675,0.8422822381497747,0.253649482004326,0.008422822381497747
-0.0010065,0.8533296738005269,0.253649482004326,0.008533296738005269
-0.00100625,0.8606946309010279,0.253649482004326,0.00860694630901028
-0.001006,0.8606946309010279,0.249895719114563,0.00860694630901028
-0.00100575,0.868059588001528,0.249895719114563,0.00868059588001528
-0.0010055,0.8754245451020298,0.2461419562248004,0.008754245451020298
-0.00100525,0.879107023652277,0.2461419562248004,0.00879107023652277
-0.001005,0.8864719807527754,0.2536494820043226,0.008864719807527755
-0.00100475,0.8938369378532789,0.249895719114563,0.008938369378532788
-0.0010045,0.8938369378532789,0.2574032448940886,0.008938369378532788
-0.00100425,0.8975194164035294,0.253649482004326,0.008975194164035295
-0.001004,0.908566852054285,0.249895719114563,0.00908566852054285
-0.00100375,0.9196142877050323,0.2498957191145647,0.009196142877050324
-0.0010035,0.9232967662552795,0.2536494820043243,0.009232967662552794
-0.00100325,0.9306617233557812,0.253649482004326,0.009306617233557812
-0.001003,0.9380266804562813,0.253649482004326,0.009380266804562814
-0.00100275,0.9343442019060308,0.253649482004326,0.009343442019060309
-0.0010025,0.9417091590065318,0.253649482004326,0.009417091590065318
-0.00100225,0.9453916375567831,0.2536494820043243,0.009453916375567832
-0.001002,0.9490741161070303,0.2498957191145647,0.009490741161070302
-0.00100175,0.9564390732075287,0.249895719114563,0.009564390732075288
-0.0010015,0.9601215517577826,0.249895719114563,0.009601215517577826
-0.00100125,0.9674865088582827,0.249895719114563,0.009674865088582826
-0.001001,0.9711689874085332,0.253649482004326,0.009711689874085333
-0.00100075,0.9785339445090366,0.2498957191145613,0.009785339445090366
-0.0010005,0.9858989016095351,0.2461419562247987,0.009858989016095351
-0.00100025,0.9895813801597823,0.2423881933350391,0.009895813801597823
-0.001,0.9932638587100344,0.2461419562248004,0.009932638587100345
-0.00099975,1.000628815810535,0.2461419562248004,0.01000628815810535
-0.0009995,1.007993772911035,0.253649482004326,0.01007993772911035
-0.0009992499999999999,1.015358730011536,0.249895719114563,0.01015358730011536
-0.0009989999999999999,1.019041208561785,0.253649482004326,0.01019041208561785
-0.0009987500000000001,1.019041208561785,0.253649482004326,0.01019041208561785
-0.0009985,1.026406165662282,0.2611570077838478,0.01026406165662282
-0.00099825,1.030088644212536,0.2611570077838512,0.01030088644212536
-0.000998,1.037453601313036,0.2574032448940886,0.01037453601313036
-0.0009977499999999999,1.041136079863286,0.2574032448940886,0.01041136079863286
-0.0009974999999999999,1.04481855841354,0.2498957191145647,0.0104481855841354
-0.0009972499999999999,1.05218351551404,0.2536494820043226,0.0105218351551404
-0.0009970000000000001,1.059548472614534,0.2461419562248038,0.01059548472614534
-0.00099675,1.063230951164788,0.249895719114563,0.01063230951164788
-0.0009965,1.070595908265288,0.249895719114563,0.01070595908265288
-0.00099625,1.074278386815538,0.249895719114563,0.01074278386815538
-0.0009959999999999999,1.081643343916038,0.249895719114563,0.01081643343916038
-0.0009957499999999999,1.085325822466292,0.2536494820043243,0.01085325822466292
-0.0009955000000000001,1.092690779566786,0.2498957191145647,0.01092690779566786
-0.00099525,1.096373258117038,0.2574032448940852,0.01096373258117038
-0.000995,1.100055736667289,0.253649482004326,0.01100055736667289
-0.00099475,1.10742069376779,0.253649482004326,0.0110742069376779
-0.0009944999999999999,1.10742069376779,0.2574032448940886,0.0110742069376779
-0.0009942499999999999,1.114785650868292,0.2498957191145647,0.01114785650868292
-0.0009939999999999999,1.11846812941854,0.2536494820043226,0.0111846812941854
-0.0009937500000000001,1.11846812941854,0.2461419562248038,0.0111846812941854
-0.0009935,1.125833086519038,0.2498957191145613,0.01125833086519038
-0.00099325,1.133198043619541,0.249895719114563,0.01133198043619541
-0.000993,1.136880522169792,0.2461419562248004,0.01136880522169791
-0.0009927499999999999,1.140563000720041,0.249895719114563,0.01140563000720041
-0.0009924999999999999,1.147927957820545,0.253649482004326,0.01147927957820545
-0.0009922499999999999,1.155292914921047,0.2536494820043277,0.01155292914921047
-0.000992,1.166340350571788,0.2574032448940869,0.01166340350571788
-0.00099175,1.173705307672293,0.2574032448940886,0.01173705307672293
-0.0009915,1.184752743323044,0.2574032448940886,0.01184752743323044
-0.0009912499999999999,1.188435221873294,0.2574032448940886,0.01188435221873294
-0.0009909999999999999,1.188435221873294,0.2574032448940886,0.01188435221873294
-0.0009907499999999999,1.192117700423545,0.253649482004326,0.01192117700423545
-0.0009905000000000001,1.195800178973792,0.253649482004326,0.01195800178973793
-0.00099025,1.199482657524042,0.2574032448940869,0.01199482657524042
-0.00099,1.203165136074294,0.253649482004326,0.01203165136074294
-0.00098975,1.210530093174794,0.253649482004326,0.01210530093174794
-0.0009894999999999999,1.214212571725045,0.2574032448940886,0.01214212571725045
-0.0009892499999999999,1.217895050275297,0.2536494820043277,0.01217895050275297
-0.0009889999999999999,1.221577528825545,0.2574032448940852,0.01221577528825545
-0.00098875,1.221577528825545,0.2498957191145664,0.01221577528825545
-0.0009885,1.228942485926046,0.249895719114563,0.01228942485926046
-0.00098825,1.232624964476296,0.253649482004326,0.01232624964476296
-0.0009879999999999999,1.239989921576797,0.253649482004326,0.01239989921576797
-0.0009877499999999999,1.251037357227546,0.253649482004326,0.01251037357227546
-0.0009874999999999999,1.258402314328049,0.2574032448940869,0.01258402314328049
-0.0009872500000000001,1.262084792878295,0.2536494820043277,0.01262084792878295
-0.000987,1.262084792878297,0.253649482004326,0.01262084792878297
-0.00098675,1.269449749978798,0.253649482004326,0.01269449749978798
-0.0009865,1.276814707079298,0.2574032448940886,0.01276814707079298
-0.0009862499999999999,1.273132228529048,0.2574032448940886,0.01273132228529048
-0.0009859999999999999,1.284179664179798,0.2574032448940869,0.01284179664179798
-0.0009857499999999999,1.284179664179802,0.2536494820043226,0.01284179664179801
-0.0009855,1.291544621280295,0.2461419562248038,0.01291544621280295
-0.00098525,1.298909578380799,0.249895719114563,0.01298909578380799
-0.000985,1.302592056931049,0.253649482004326,0.01302592056931049
-0.0009847499999999999,1.3136394925818,0.249895719114563,0.013136394925818
-0.0009844999999999999,1.3136394925818,0.253649482004326,0.013136394925818
-0.0009842499999999999,1.317321971132052,0.253649482004326,0.01317321971132052
-0.0009840000000000001,1.321004449682299,0.253649482004326,0.01321004449682299
-0.00098375,1.324686928232548,0.2574032448940869,0.01324686928232548
-0.0009835,1.335734363883301,0.2574032448940886,0.01335734363883301
-0.00098325,1.343099320983801,0.2574032448940886,0.01343099320983801
-0.0009829999999999999,1.335734363883301,0.253649482004326,0.01335734363883301
-0.0009827499999999999,1.346781799534053,0.2574032448940903,0.01346781799534053
-0.0009824999999999999,1.350464278084305,0.2611570077838495,0.01350464278084305
-0.0009822500000000001,1.357829235184799,0.2574032448940903,0.01357829235184799
-0.000982,1.361511713735053,0.2649107706736142,0.01361511713735052
-0.00098175,1.368876670835553,0.2611570077838512,0.01368876670835553
-0.0009815,1.376241627936053,0.2611570077838512,0.01376241627936053
-0.0009812499999999999,1.379924106486303,0.2611570077838512,0.01379924106486303
-0.0009809999999999999,1.387289063586805,0.2574032448940886,0.01387289063586805
-0.0009807500000000001,1.390971542137052,0.2574032448940886,0.01390971542137052
-0.0009805,1.394654020687302,0.2611570077838495,0.01394654020687302
-0.00098025,1.398336499237554,0.2611570077838512,0.01398336499237554
-0.00098,1.405701456338054,0.2574032448940886,0.01405701456338054
-0.0009797499999999999,1.405701456338054,0.2574032448940886,0.01405701456338054
-0.0009794999999999999,1.416748891988805,0.2536494820043277,0.01416748891988805
-0.0009792499999999999,1.416748891988808,0.2574032448940903,0.01416748891988808
-0.0009790000000000001,1.424113849089301,0.2611570077838495,0.01424113849089302
-0.00097875,1.427796327639555,0.2574032448940886,0.01427796327639555
-0.0009785,1.431478806189806,0.2574032448940886,0.01431478806189806
-0.00097825,1.435161284740055,0.2611570077838512,0.01435161284740055
-0.0009779999999999999,1.442526241840556,0.2574032448940886,0.01442526241840556
-0.0009777499999999999,1.449891198941058,0.2574032448940869,0.01449891198941058
-0.0009775000000000001,1.453573677491305,0.2536494820043277,0.01453573677491305
-0.00097725,1.457256156041555,0.2611570077838478,0.01457256156041555
-0.000977,1.464621113142058,0.2574032448940886,0.01464621113142058
-0.00097675,1.468303591692307,0.2611570077838512,0.01468303591692307
-0.0009764999999999999,1.468303591692307,0.2611570077838512,0.01468303591692307
-0.00097625,1.479351027343058,0.2574032448940886,0.01479351027343058
-0.000976,1.479351027343058,0.2611570077838512,0.01479351027343058
-0.0009757499999999999,1.483033505893308,0.2611570077838512,0.01483033505893308
-0.0009754999999999999,1.490398462993809,0.2574032448940886,0.01490398462993808
-0.00097525,1.494080941544059,0.2574032448940886,0.01494080941544059
-0.000975,1.501445898644559,0.253649482004326,0.01501445898644559
-0.0009747499999999999,1.50512837719481,0.2574032448940886,0.0150512837719481
-0.0009745,1.51249333429531,0.2611570077838512,0.0151249333429531
-0.00097425,1.516175812845559,0.2649107706736142,0.01516175812845559
-0.0009739999999999999,1.51985829139581,0.2611570077838512,0.0151985829139581
-0.00097375,1.52722324849631,0.2611570077838512,0.0152722324849631
-0.0009735,1.538270684147061,0.2574032448940886,0.01538270684147061
-0.0009732499999999999,1.534588205596811,0.2574032448940886,0.01534588205596811
-0.000973,1.541953162697311,0.2574032448940886,0.01541953162697311
-0.00097275,1.549318119797811,0.2574032448940886,0.01549318119797811
-0.0009724999999999999,1.556683076898311,0.2574032448940886,0.01556683076898311
-0.0009722499999999999,1.560365555448562,0.253649482004326,0.01560365555448562
-0.000972,1.564048033998812,0.2574032448940886,0.01564048033998812
-0.00097175,1.571412991099312,0.253649482004326,0.01571412991099312
-0.0009714999999999999,1.575095469649563,0.2611570077838512,0.01575095469649563
-0.00097125,1.578777948199813,0.2574032448940886,0.01578777948199812
-0.000971,1.578777948199813,0.2574032448940886,0.01578777948199812
-0.0009707499999999999,1.586142905300314,0.2574032448940886,0.01586142905300314
-0.0009705,1.586142905300314,0.2574032448940886,0.01586142905300314
-0.00097025,1.593507862400814,0.2649107706736142,0.01593507862400814
-0.0009699999999999999,1.597190340951064,0.2574032448940886,0.01597190340951064
-0.00096975,1.604555298051564,0.2574032448940886,0.01604555298051564
-0.0009695,1.608237776601814,0.2649107706736142,0.01608237776601814
-0.00096925,1.615602733702315,0.2611570077838512,0.01615602733702315
-0.0009689999999999999,1.622967690802815,0.2611570077838512,0.01622967690802815
-0.00096875,1.630332647903315,0.2574032448940886,0.01630332647903315
-0.0009685,1.634015126453566,0.2574032448940886,0.01634015126453565
-0.0009682499999999999,1.634015126453566,0.2649107706736142,0.01634015126453565
-0.000968,1.641380083554066,0.2686645335633768,0.01641380083554066
-0.00096775,1.645062562104316,0.2649107706736142,0.01645062562104316
-0.0009674999999999999,1.656109997755067,0.2611570077838512,0.01656109997755067
-0.00096725,1.652427519204816,0.2611570077838512,0.01652427519204816
-0.000967,1.656109997755067,0.2574032448940886,0.01656109997755067
-0.0009667499999999999,1.667157433405817,0.253649482004326,0.01667157433405817
-0.0009665,1.670839911956067,0.2649107706736142,0.01670839911956067
-0.00096625,1.678204869056568,0.2649107706736142,0.01678204869056568
-0.000966,1.681887347606818,0.2611570077838512,0.01681887347606818
-0.0009657499999999999,1.685569826157068,0.2574032448940886,0.01685569826157068
-0.0009655,1.696617261807819,0.2611570077838512,0.01696617261807819
-0.00096525,1.700299740358068,0.2611570077838512,0.01700299740358069
-0.0009649999999999999,1.703982218908319,0.2611570077838512,0.01703982218908319
-0.00096475,1.707664697458569,0.2611570077838512,0.01707664697458569
-0.0009645,1.71502965455907,0.2611570077838512,0.0171502965455907
-0.0009642499999999999,1.71502965455907,0.2611570077838512,0.0171502965455907
-0.000964,1.71871213310932,0.2611570077838512,0.0171871213310932
-0.00096375,1.72607709020982,0.2611570077838512,0.0172607709020982
-0.0009634999999999999,1.729759568760071,0.2574032448940886,0.01729759568760071
-0.0009632499999999999,1.729759568760071,0.2611570077838512,0.01729759568760071
-0.000963,1.73344204731032,0.253649482004326,0.0173344204731032
-0.00096275,1.74080700441082,0.253649482004326,0.0174080700441082
-0.0009624999999999999,1.748171961511321,0.2574032448940886,0.01748171961511321
-0.00096225,1.748171961511321,0.253649482004326,0.01748171961511321
-0.000962,1.755536918611821,0.2611570077838512,0.01755536918611822
-0.0009617499999999999,1.759219397162072,0.2611570077838512,0.01759219397162072
-0.0009615,1.762901875712322,0.2649107706736142,0.01762901875712321
-0.00096125,1.770266832812823,0.2611570077838512,0.01770266832812823
-0.0009609999999999999,1.781314268463572,0.2611570077838512,0.01781314268463572
-0.00096075,1.784996747013823,0.2574032448940886,0.01784996747013823
-0.0009605,1.788679225564073,0.2611570077838512,0.01788679225564073
-0.0009602499999999999,1.788679225564073,0.2611570077838512,0.01788679225564073
-0.0009599999999999999,1.799726661214824,0.2649107706736142,0.01799726661214824
-0.00095975,1.803409139765074,0.2611570077838512,0.01803409139765073
-0.0009595,1.803409139765074,0.2611570077838512,0.01803409139765073
-0.0009592499999999999,1.807091618315324,0.2649107706736142,0.01807091618315324
-0.000959,1.810774096865575,0.2611570077838512,0.01810774096865575
-0.00095875,1.814456575415824,0.2574032448940886,0.01814456575415824
-0.0009584999999999999,1.821821532516325,0.2611570077838512,0.01821821532516325
-0.00095825,1.825504011066575,0.2574032448940886,0.01825504011066575
-0.000958,1.829186489616825,0.2649107706736142,0.01829186489616825
-0.0009577499999999999,1.840233925267576,0.2611570077838512,0.01840233925267576
-0.0009575,1.843916403817826,0.2611570077838512,0.01843916403817826
-0.00095725,1.847598882368076,0.2574032448940886,0.01847598882368076
-0.000957,1.847598882368076,0.2611570077838512,0.01847598882368076
-0.0009567499999999999,1.851281360918327,0.2611570077838512,0.01851281360918327
