LAB12seriesactual.csv

#Digilent WaveForms Oscilloscope Acquisition
#Device Name: Discovery2
#Serial Number: SN:210321AC1D55
#Date Time: 2021-04-08 16:16:24.183
#Sample rate: 4e+06Hz
#Samples: 8192
#Trigger: Source: Channel 1 Type: Edge Condition: Rising Level: 557.4 mV Hyst.: Auto HoldOff: 0 s
#Channel 1: Range: 1 V/div Offset: 2 V Attenuation: 1 X
#Channel 2: Range: 2 V/div Offset: -4 V Attenuation: 1 X
#Math 1: Function: C1/100
#Wavegen Channel 1: Running
#Mode: Simple
#Type: Sine
#Frequency: 1 kHz
#Period: 1 ms
#Amplitude: 4 V
#Offset: 0 V
#Symmetry: 50 %
#Phase: 0 °

Time (s),Channel 1 (V),Channel 2 (V),Math 1 (A)
-0.001023875,0.1770737663186788,1.293441802468614,0.001770737663186788
-0.001023625,0.1807562448689276,1.297195565358376,0.001807562448689276
-0.001023375,0.1770737663186804,1.297195565358376,0.001770737663186804
-0.001023125,0.184438723419176,1.293441802468616,0.00184438723419176
-0.001022875,0.1881212019694294,1.297195565358376,0.001881212019694294
-0.001022625,0.1918036805196799,1.300949328248139,0.001918036805196799
-0.001022375,0.1918036805196799,1.304703091137902,0.001918036805196799
-0.001022125,0.1954861590699316,1.308456854027666,0.001954861590699316
-0.001021875,0.1991686376201817,1.312210616917428,0.001991686376201817
-0.001021625,0.2028511161704284,1.312210616917428,0.002028511161704284
-0.001021375,0.2028511161704301,1.31596437980719,0.002028511161704301
-0.001021125,0.2065335947206806,1.312210616917428,0.002065335947206806
-0.001020875,0.2175810303714312,1.319718142696953,0.002175810303714312
-0.001020625,0.2212635089216812,1.323471905586716,0.002212635089216812
-0.001020375,0.2212635089216879,1.323471905586716,0.002212635089216879
-0.001020125,0.2359934231226752,1.323471905586716,0.002359934231226752
-0.001019875,0.2396759016729303,1.319718142696955,0.002396759016729302
-0.001019625,0.2359934231226819,1.319718142696953,0.002359934231226819
-0.001019375,0.239675901672932,1.323471905586716,0.002396759016729319
-0.001019125,0.2470408587734325,1.323471905586716,0.002470408587734325
-0.001018875,0.2470408587734342,1.319718142696953,0.002470408587734342
-0.001018625,0.2507233373236842,1.319718142696958,0.002507233373236843
-0.001018375,0.254405815873931,1.330979431366236,0.00254405815873931
-0.001018125,0.2617707729744299,1.32722566847648,0.002617707729744298
-0.001017875,0.2654532515246832,1.334733194256004,0.002654532515246832
-0.001017625,0.2691357300749333,1.334733194256004,0.002691357300749333
-0.001017375,0.2728182086251838,1.34224072003553,0.002728182086251838
-0.001017125,0.2801831657256839,1.342240720035526,0.002801831657256839
-0.001016875,0.2801831657256856,1.334733194256009,0.002801831657256856
-0.001016625,0.2838656442759327,1.345994482925287,0.002838656442759327
-0.001016375,0.2912306013764345,1.345994482925292,0.002912306013764345
-0.001016125,0.2985955584769351,1.353502008704818,0.002985955584769351
-0.001015875,0.2949130799266846,1.349748245815055,0.002949130799266846
-0.001015625,0.3059605155774369,1.349748245815057,0.003059605155774369
-0.001015375,0.309642994127684,1.353502008704815,0.00309642994127684
-0.001015125,0.3059605155774369,1.345994482925296,0.003059605155774369
-0.001014875,0.3133254726779324,1.349748245815054,0.003133254726779324
-0.001014625,0.3170079512281858,1.349748245815055,0.003170079512281858
-0.001014375,0.3206904297784359,1.349748245815055,0.003206904297784359
-0.001014125,0.3206904297784359,1.349748245815055,0.003206904297784359
-0.001013875,0.3243729083286897,1.35350200870482,0.003243729083286897
-0.001013625,0.3317378654291848,1.357255771594583,0.003317378654291848
-0.001013375,0.3280553868789381,1.361009534484342,0.003280553868789381
-0.001013125,0.3354203439794365,1.364763297374106,0.003354203439794365
-0.001012875,0.3427853010799371,1.368517060263869,0.003427853010799371
-0.001012625,0.3501502581804377,1.364763297374106,0.003501502581804376
-0.001012375,0.3575152152809378,1.364763297374106,0.003575152152809378
-0.001012125,0.3575152152809378,1.357255771594581,0.003575152152809378
-0.001011875,0.3575152152809378,1.357255771594581,0.003575152152809378
-0.001011625,0.3685626509316834,1.357255771594581,0.003685626509316834
-0.001011375,0.3685626509316884,1.357255771594581,0.003685626509316884
-0.001011125,0.3685626509316884,1.364763297374106,0.003685626509316884
-0.001010875,0.3722451294819384,1.364763297374106,0.003722451294819385
-0.001010625,0.3759276080321923,1.364763297374104,0.003759276080321923
-0.001010375,0.3832925651326924,1.361009534484345,0.003832925651326924
-0.001010125,0.3906575222331863,1.364763297374104,0.003906575222331862
-0.001009875,0.3980224793336897,1.364763297374106,0.003980224793336897
-0.001009625,0.4017049578839398,1.368517060263869,0.004017049578839398
-0.001009375,0.4053874364341903,1.372270823153632,0.004053874364341903
-0.001009125,0.4090699149844403,1.372270823153632,0.004090699149844403
-0.001008875,0.4164348720849442,1.372270823153635,0.004164348720849443
-0.001008625,0.4237998291854377,1.379778348933154,0.004237998291854376
-0.001008375,0.4311647862859382,1.379778348933157,0.004311647862859382
-0.001008125,0.4274823077356911,1.379778348933157,0.00427482307735691
-0.001007875,0.423799829185441,1.376024586043395,0.00423799829185441
-0.001007625,0.4274823077356911,1.379778348933157,0.00427482307735691
-0.001007375,0.434847264836195,1.379778348933161,0.00434847264836195
-0.001007125,0.4422122219366922,1.387285874712681,0.004422122219366922
-0.001006875,0.4422122219366922,1.383532111822922,0.004422122219366922
-0.001006625,0.4422122219366922,1.38353211182292,0.004422122219366922
-0.001006375,0.4458947004869422,1.379778348933157,0.004458947004869422
-0.001006125,0.4569421361376929,1.379778348933157,0.004569421361376929
-0.001005875,0.4606246146879429,1.387285874712683,0.004606246146879429
-0.001005625,0.460624614687948,1.387285874712685,0.00460624614687948
-0.001005375,0.4716720503386885,1.391039637602444,0.004716720503386885
-0.001005125,0.4790370074391903,1.394793400492207,0.004790370074391903
-0.001004875,0.4790370074391936,1.391039637602446,0.004790370074391937
-0.001004625,0.4790370074391936,1.387285874712683,0.004790370074391937
-0.001004375,0.4864019645396942,1.387285874712683,0.004864019645396942
-0.001004125,0.4937669216401943,1.387285874712685,0.004937669216401943
-0.001003875,0.4937669216401943,1.391039637602449,0.004937669216401943
-0.001003625,0.4937669216401943,1.398547163381968,0.004937669216401943
-0.001003375,0.5011318787406949,1.398547163381971,0.005011318787406949
-0.001003125,0.5121793143914455,1.398547163381971,0.005121793143914454
-0.001002875,0.5121793143914455,1.402300926271734,0.005121793143914454
-0.001002625,0.5158617929416955,1.398547163381971,0.005158617929416956
-0.001002375,0.5195442714919473,1.402300926271733,0.005195442714919472
-0.001002125,0.5232267500421944,1.398547163381973,0.005232267500421945
-0.001001875,0.5269092285924445,1.402300926271733,0.005269092285924445
-0.001001625,0.5305917071426962,1.409808452051259,0.005305917071426962
-0.001001375,0.5305917071426962,1.402300926271734,0.005305917071426962
-0.001001125,0.5342741856929463,1.402300926271734,0.005342741856929463
-0.001000875,0.5416391427934485,1.409808452051256,0.005416391427934485
-0.001000625,0.5453216213436985,1.402300926271736,0.005453216213436985
-0.001000375,0.5490040998939457,1.406054689161495,0.005490040998939457
-0.001000125,0.5526865784441974,1.406054689161497,0.005526865784441975
-0.0009998750000000001,0.5563690569944475,1.406054689161497,0.005563690569944475
-0.0009996250000000001,0.5637340140949481,1.409808452051259,0.005637340140949481
-0.000999375,0.5674164926451981,1.406054689161497,0.005674164926451981
-0.000999125,0.5674164926452014,1.402300926271736,0.005674164926452015
-0.0009988750000000002,0.5747814497456953,1.406054689161495,0.005747814497456953
-0.0009986250000000002,0.5784639282959471,1.398547163381975,0.00578463928295947
-0.0009983750000000001,0.5858288853964488,1.406054689161497,0.005858288853964488
-0.0009981250000000001,0.5858288853964488,1.409808452051259,0.005858288853964488
-0.0009978750000000001,0.5931938424969494,1.409808452051259,0.005931938424969494
-0.000997625,0.5968763210472028,1.409808452051259,0.005968763210472028
-0.000997375,0.6042412781477017,1.409808452051261,0.006042412781477016
-0.0009971250000000002,0.6079237566979484,1.413562214941021,0.006079237566979485
-0.0009968750000000001,0.6116062352482001,1.413562214941023,0.006116062352482001
-0.0009966250000000001,0.6152887137984506,1.409808452051259,0.006152887137984506
-0.0009963750000000001,0.6152887137984506,1.417315977830785,0.006152887137984506
-0.000996125,0.6226536708989507,1.409808452051259,0.006226536708989507
-0.000995875,0.6263361494492025,1.413562214941021,0.006263361494492025
-0.0009956250000000002,0.6300186279994496,1.409808452051261,0.006300186279994496
-0.0009953750000000002,0.6373835850999481,1.413562214941021,0.006373835850999481
-0.0009951250000000001,0.6410660636502019,1.413562214941023,0.006410660636502019
-0.0009948750000000001,0.644748542200452,1.417315977830785,0.00644748542200452
-0.0009946250000000001,0.648431020750702,1.417315977830785,0.00648431020750702
-0.000994375,0.6521134993009554,1.417315977830785,0.006521134993009554
-0.000994125,0.659478456401456,1.417315977830787,0.00659478456401456
-0.0009938750000000002,0.6668434135019499,1.421069740720546,0.006668434135019498
-0.0009936250000000002,0.6631609349517044,1.417315977830787,0.006631609349517043
-0.0009933750000000001,0.6742083706024533,1.421069740720548,0.006742083706024533
-0.0009931250000000001,0.6742083706024533,1.424823503610311,0.006742083706024533
-0.0009928750000000001,0.6852558062532039,1.424823503610311,0.006852558062532039
-0.000992625,0.6889382848034573,1.42106974072055,0.006889382848034573
-0.000992375,0.6963032419039545,1.424823503610313,0.006963032419039545
-0.0009921250000000002,0.6963032419039545,1.428577266500072,0.006963032419039545
-0.0009918750000000001,0.6963032419039545,1.421069740720548,0.006963032419039545
-0.0009916250000000001,0.7036681990044547,1.424823503610311,0.007036681990044547
-0.0009913750000000001,0.7036681990044547,1.424823503610311,0.007036681990044547
-0.000991125,0.7036681990044547,1.424823503610311,0.007036681990044547
-0.000990875,0.7110331561049585,1.428577266500072,0.007110331561049586
-0.0009906250000000002,0.718398113205452,1.424823503610313,0.007183981132054519
-0.0009903750000000002,0.7220805917557042,1.428577266500072,0.007220805917557042
-0.0009901250000000001,0.7220805917557058,1.432331029389836,0.007220805917557058
-0.0009898750000000001,0.7294455488562059,1.428577266500073,0.00729445548856206
-0.0009896250000000001,0.7294455488562059,1.432331029389836,0.00729445548856206
-0.000989375,0.7368105059567082,1.432331029389835,0.007368105059567081
-0.000989125,0.7404929845069599,1.428577266500077,0.0074049298450696
-0.0009888750000000002,0.7478579416074538,1.436084792279596,0.007478579416074538
-0.0009886250000000001,0.7552228987079572,1.436084792279599,0.007552228987079572
-0.0009883750000000001,0.7552228987079572,1.436084792279599,0.007552228987079572
-0.0009881250000000001,0.7552228987079572,1.432331029389836,0.007552228987079572
-0.000987875,0.7589053772582073,1.436084792279599,0.007589053772582073
-0.000987625,0.7625878558084578,1.436084792279599,0.007625878558084578
-0.0009873750000000002,0.7625878558084578,1.436084792279599,0.007625878558084578
-0.0009871250000000002,0.7736352914592034,1.436084792279599,0.007736352914592033
-0.0009868750000000001,0.7773177700094585,1.432331029389836,0.007773177700094585
-0.0009866250000000001,0.7846827271099586,1.436084792279599,0.007846827271099586
-0.0009863750000000001,0.7883652056602091,1.439838555169362,0.007883652056602091
-0.000986125,0.7920476842104625,1.436084792279602,0.007920476842104625
-0.000985875,0.7994126413109597,1.443592318059125,0.007994126413109598
-0.0009856250000000002,0.7994126413109597,1.443592318059125,0.007994126413109598
-0.0009853750000000001,0.8067775984114598,1.443592318059125,0.008067775984114598
-0.0009851250000000001,0.8104600769617099,1.439838555169362,0.008104600769617099
-0.0009848750000000001,0.8178250340622104,1.443592318059125,0.008178250340622105
-0.000984625,0.8215075126124605,1.439838555169362,0.008215075126124604
-0.000984375,0.8251899911627105,1.443592318059125,0.008251899911627105
-0.0009841250000000002,0.8251899911627105,1.443592318059125,0.008251899911627105
-0.0009838750000000002,0.8288724697129594,1.443592318059125,0.008288724697129593
-0.0009836250000000001,0.8325549482632111,1.443592318059125,0.008325549482632111
-0.0009833750000000001,0.8325549482632111,1.439838555169362,0.008325549482632111
-0.0009831250000000001,0.8399199053637116,1.443592318059125,0.008399199053637117
-0.000982875,0.8399199053637133,1.447346080948884,0.008399199053637134
-0.000982625,0.8436023839139667,1.439838555169365,0.008436023839139667
-0.0009823750000000002,0.8546498195647073,1.447346080948884,0.008546498195647073
-0.0009821250000000001,0.8583322981149624,1.443592318059125,0.008583322981149624
-0.0009818750000000001,0.8583322981149624,1.443592318059125,0.008583322981149624
-0.0009816250000000001,0.8583322981149624,1.443592318059125,0.008583322981149624
-0.000981375,0.869379733765713,1.45109984383865,0.008693797337657129
-0.000981125,0.8730622123159647,1.45109984383865,0.008730622123159648
-0.0009808750000000002,0.8767446908662114,1.45109984383865,0.008767446908662114
-0.0009806250000000002,0.8877921265169587,1.45109984383865,0.008877921265169586
-0.0009803750000000001,0.8914746050672138,1.45109984383865,0.008914746050672138
-0.0009801250000000001,0.8914746050672138,1.45109984383865,0.008914746050672138
-0.0009798750000000001,0.8988395621677143,1.45109984383865,0.008988395621677144
-0.000979625,0.8951570836174659,1.454853606728413,0.00895157083617466
-0.000979375,0.8988395621677177,1.454853606728413,0.008988395621677176
-0.0009791250000000002,0.9062045192682116,1.454853606728413,0.009062045192682116
-0.0009788750000000001,0.9098869978184649,1.458607369618176,0.009098869978184649
-0.0009786250000000001,0.913569476368715,1.458607369618176,0.00913569476368715
-0.0009783750000000001,0.9172519549189651,1.458607369618176,0.009172519549189651
-0.000978125,0.9246169120194656,1.454853606728413,0.009246169120194657
-0.000977875,0.9282993905697173,1.458607369618178,0.009282993905697173
-0.0009776250000000002,0.9319818691199645,1.462361132507937,0.009319818691199645
-0.0009773750000000002,0.9356643476702146,1.458607369618178,0.009356643476702144
-0.0009771250000000001,0.9393468262204663,1.458607369618176,0.009393468262204663
-0.0009768750000000001,0.9467117833209668,1.458607369618176,0.009467117833209669
-0.0009766250000000001,0.9503942618712169,1.458607369618176,0.00950394261871217
-0.000976375,0.9503942618712169,1.462361132507938,0.00950394261871217
-0.000976125,0.954076740421467,1.462361132507938,0.009540767404214669
-0.000975875,0.954076740421467,1.462361132507938,0.009540767404214669
-0.0009756249999999999,0.954076740421467,1.458607369618176,0.009540767404214669
-0.000975375,0.9651241760722176,1.466114895397701,0.009651241760722176
-0.000975125,0.9651241760722176,1.458607369618176,0.009651241760722176
-0.0009748749999999999,0.9651241760722176,1.462361132507938,0.009651241760722176
-0.000974625,0.9724891331727181,1.462361132507938,0.009724891331727182
-0.000974375,0.9798540902732182,1.462361132507938,0.009798540902732182
-0.0009741249999999999,0.9835365688234683,1.458607369618176,0.009835365688234683
-0.000973875,0.9872190473737188,1.454853606728413,0.009872190473737188
-0.000973625,0.9909015259239689,1.458607369618176,0.009909015259239689
-0.000973375,1.001948961574719,1.462361132507938,0.01001948961574719
-0.000973125,1.00563144012497,1.458607369618176,0.0100563144012497
-0.000972875,1.00563144012497,1.462361132507938,0.0100563144012497
-0.000972625,1.00931391867522,1.462361132507938,0.0100931391867522
-0.0009723749999999999,1.01299639722547,1.462361132507938,0.0101299639722547
-0.000972125,1.01667887577572,1.462361132507938,0.0101667887577572
-0.000971875,1.024043832876221,1.462361132507938,0.01024043832876221
-0.0009716249999999999,1.02036135432597,1.466114895397701,0.0102036135432597
-0.000971375,1.027726311426471,1.466114895397701,0.01027726311426471
-0.000971125,1.035091268526971,1.462361132507938,0.01035091268526971
-0.0009708749999999999,1.035091268526971,1.466114895397701,0.01035091268526971
-0.000970625,1.038773747077221,1.469868658287464,0.01038773747077221
-0.000970375,1.046138704177721,1.469868658287464,0.01046138704177721
-0.000970125,1.042456225627471,1.469868658287464,0.01042456225627472
-0.000969875,1.053503661278222,1.469868658287464,0.01053503661278222
-0.000969625,1.060868618378722,1.469868658287464,0.01060868618378722
-0.000969375,1.068233575479223,1.473622421177227,0.01068233575479223
-0.0009691249999999999,1.071916054029473,1.473622421177227,0.01071916054029473
-0.000968875,1.075598532579723,1.473622421177227,0.01075598532579723
-0.000968625,1.079281011129973,1.473622421177227,0.01079281011129973
-0.0009683749999999999,1.079281011129973,1.469868658287464,0.01079281011129973
-0.000968125,1.079281011129973,1.469868658287464,0.01079281011129973
-0.000967875,1.082963489680223,1.473622421177227,0.01082963489680223
-0.000967625,1.086645968230473,1.47737618406699,0.01086645968230473
-0.000967375,1.090328446780724,1.47737618406699,0.01090328446780724
-0.000967125,1.094010925330974,1.47737618406699,0.01094010925330974
-0.000966875,1.101375882431474,1.473622421177227,0.01101375882431474
-0.000966625,1.105058360981725,1.473622421177227,0.01105058360981725
-0.000966375,1.112423318082225,1.473622421177227,0.01112423318082225
-0.000966125,1.112423318082225,1.469868658287464,0.01112423318082225
-0.0009658749999999999,1.116105796632475,1.47737618406699,0.01116105796632475
-0.000965625,1.116105796632475,1.47737618406699,0.01116105796632475
-0.000965375,1.123470753732975,1.47737618406699,0.01123470753732975
-0.0009651249999999999,1.127153232283225,1.47737618406699,0.01127153232283225
-0.000964875,1.127153232283225,1.47737618406699,0.01127153232283225
-0.000964625,1.134518189383726,1.484883709846515,0.01134518189383726
-0.000964375,1.134518189383726,1.481129946956752,0.01134518189383726
-0.000964125,1.141883146484226,1.47737618406699,0.01141883146484226
-0.000963875,1.145565625034477,1.47737618406699,0.01145565625034477
-0.000963625,1.149248103584727,1.484883709846515,0.01149248103584727
-0.0009633749999999999,1.152930582134977,1.473622421177227,0.01152930582134977
-0.000963125,1.160295539235477,1.47737618406699,0.01160295539235477
-0.000962875,1.163978017785727,1.47737618406699,0.01163978017785727
-0.0009626249999999999,1.160295539235477,1.473622421177227,0.01160295539235477
-0.000962375,1.171342974886228,1.47737618406699,0.01171342974886228
-0.000962125,1.171342974886228,1.47737618406699,0.01171342974886228
-0.0009618749999999999,1.178707931986728,1.47737618406699,0.01178707931986728
-0.000961625,1.178707931986728,1.481129946956752,0.01178707931986728
-0.000961375,1.186072889087229,1.484883709846515,0.01186072889087228
-0.000961125,1.186072889087229,1.481129946956752,0.01186072889087228
-0.000960875,1.189755367637479,1.484883709846515,0.01189755367637479
-0.000960625,1.193437846187729,1.488637472736278,0.01193437846187729
-0.000960375,1.204485281838479,1.484883709846515,0.01204485281838479
-0.0009601249999999999,1.200802803288229,1.488637472736278,0.01200802803288229
-0.000959875,1.204485281838479,1.484883709846515,0.01204485281838479
-0.000959625,1.208167760388729,1.481129946956752,0.01208167760388729
-0.0009593749999999999,1.21185023893898,1.484883709846515,0.0121185023893898
-0.000959125,1.21185023893898,1.484883709846515,0.0121185023893898
-0.000958875,1.21921519603948,1.481129946956752,0.0121921519603948
-0.000958625,1.22289767458973,1.47737618406699,0.0122289767458973
-0.000958375,1.230262631690231,1.481129946956752,0.01230262631690231
-0.000958125,1.237627588790731,1.481129946956752,0.01237627588790731
